{
list: [
{
title: "iPhone 5s",
images: [
"https://upload.wikimedia.org/wikipedia/commons/f/fd/IPhone_5S.jpg",
"http://img01.ibnlive.in/ibnlive/uploads/2015/12/apple-iphone5s-151215.jpg",
"https://encrypted-tbn0.gstatic.com/images?q=tbn:ANd9GcR5cv-olMz3XKQNhQP4SpwiwqtiDreaBlpESHdCDc6Jm5GjHzRsHcxXrqAI"
]
},
{
title: "iPhone 6s",
images: [
"https://c1.staticflickr.com/2/1665/26162561181_01148e99ee_b.jpg",
"https://img1.ibay.com.mv/is1/full/2017/11/item_2028958_545.jpg",
"https://encrypted-tbn0.gstatic.com/images?q=tbn:ANd9GcSz8jIpCOU94HxZEab_vJdl9nGsaAOO18dqq2BXt_L2-PnWhroi",
"https://c1.staticflickr.com/4/3907/15102682838_25e6c90469_b.jpg",
"https://encrypted-tbn0.gstatic.com/images?q=tbn:ANd9GcTnMHHcDnMlsrtPpZmfLjQqlJXQNNEvTTg7WWMGcbOHOvxdVUoi"
]
},
{
title: "iPhone 7",
images: [
"https://encrypted-tbn0.gstatic.com/images?q=tbn:ANd9GcRQYu7fKAuYLwQCiilRNCv_wzVZbOpLGsrRzQA7prdgToCiBzsQ",
"https://encrypted-tbn0.gstatic.com/images?q=tbn:ANd9GcSGS8lca49LZGvPUtJxrof6DuzvjgKiR_0Nei_b8zeR-3uq1kzyLQ",
"https://encrypted-tbn0.gstatic.com/images?q=tbn:ANd9GcSGS8lca49LZGvPUtJxrof6DuzvjgKiR_0Nei_b8zeR-3uq1kzyLQ",
"https://encrypted-tbn0.gstatic.com/images?q=tbn:ANd9GcTko9xdQRKcdJrshSPWCjTtml9eSKiABSN--VhC5YV8MMASVRfgYw",
"https://cdn.pixabay.com/photo/2014/12/10/12/27/iphone-563070_960_720.jpg"
]
},
{
title: "iPhone 5s",
images: [
"https://upload.wikimedia.org/wikipedia/commons/f/fd/IPhone_5S.jpg",
"http://img01.ibnlive.in/ibnlive/uploads/2015/12/apple-iphone5s-151215.jpg",
"https://encrypted-tbn0.gstatic.com/images?q=tbn:ANd9GcR5cv-olMz3XKQNhQP4SpwiwqtiDreaBlpESHdCDc6Jm5GjHzRsHcxXrqAI"
]
},
{
title: "iPhone 6s",
images: [
"https://c1.staticflickr.com/2/1665/26162561181_01148e99ee_b.jpg",
"https://img1.ibay.com.mv/is1/full/2017/11/item_2028958_545.jpg",
"https://encrypted-tbn0.gstatic.com/images?q=tbn:ANd9GcSz8jIpCOU94HxZEab_vJdl9nGsaAOO18dqq2BXt_L2-PnWhroi",
"https://c1.staticflickr.com/4/3907/15102682838_25e6c90469_b.jpg",
"https://encrypted-tbn0.gstatic.com/images?q=tbn:ANd9GcTnMHHcDnMlsrtPpZmfLjQqlJXQNNEvTTg7WWMGcbOHOvxdVUoi"
]
},
{
title: "iPhone 7",
images: [
"https://encrypted-tbn0.gstatic.com/images?q=tbn:ANd9GcRQYu7fKAuYLwQCiilRNCv_wzVZbOpLGsrRzQA7prdgToCiBzsQ",
"https://encrypted-tbn0.gstatic.com/images?q=tbn:ANd9GcSGS8lca49LZGvPUtJxrof6DuzvjgKiR_0Nei_b8zeR-3uq1kzyLQ",
"https://encrypted-tbn0.gstatic.com/images?q=tbn:ANd9GcSGS8lca49LZGvPUtJxrof6DuzvjgKiR_0Nei_b8zeR-3uq1kzyLQ",
"https://encrypted-tbn0.gstatic.com/images?q=tbn:ANd9GcTko9xdQRKcdJrshSPWCjTtml9eSKiABSN--VhC5YV8MMASVRfgYw",
"https://cdn.pixabay.com/photo/2014/12/10/12/27/iphone-563070_960_720.jpg"
]
},
{
title: "iPhone 5s",
images: [
"https://upload.wikimedia.org/wikipedia/commons/f/fd/IPhone_5S.jpg",
"http://img01.ibnlive.in/ibnlive/uploads/2015/12/apple-iphone5s-151215.jpg",
"https://encrypted-tbn0.gstatic.com/images?q=tbn:ANd9GcR5cv-olMz3XKQNhQP4SpwiwqtiDreaBlpESHdCDc6Jm5GjHzRsHcxXrqAI"
]
},
{
title: "iPhone 6s",
images: [
"https://c1.staticflickr.com/2/1665/26162561181_01148e99ee_b.jpg",
"https://img1.ibay.com.mv/is1/full/2017/11/item_2028958_545.jpg",
"https://encrypted-tbn0.gstatic.com/images?q=tbn:ANd9GcSz8jIpCOU94HxZEab_vJdl9nGsaAOO18dqq2BXt_L2-PnWhroi",
"https://c1.staticflickr.com/4/3907/15102682838_25e6c90469_b.jpg",
"https://encrypted-tbn0.gstatic.com/images?q=tbn:ANd9GcTnMHHcDnMlsrtPpZmfLjQqlJXQNNEvTTg7WWMGcbOHOvxdVUoi"
]
},
{
title: "iPhone 7",
images: [
"https://encrypted-tbn0.gstatic.com/images?q=tbn:ANd9GcRQYu7fKAuYLwQCiilRNCv_wzVZbOpLGsrRzQA7prdgToCiBzsQ",
"https://encrypted-tbn0.gstatic.com/images?q=tbn:ANd9GcSGS8lca49LZGvPUtJxrof6DuzvjgKiR_0Nei_b8zeR-3uq1kzyLQ",
"https://encrypted-tbn0.gstatic.com/images?q=tbn:ANd9GcSGS8lca49LZGvPUtJxrof6DuzvjgKiR_0Nei_b8zeR-3uq1kzyLQ",
"https://encrypted-tbn0.gstatic.com/images?q=tbn:ANd9GcTko9xdQRKcdJrshSPWCjTtml9eSKiABSN--VhC5YV8MMASVRfgYw",
"https://cdn.pixabay.com/photo/2014/12/10/12/27/iphone-563070_960_720.jpg"
]
}
]
}